<svg width="60" height="60" xmlns="http://www.w3.org/2000/svg">
 <metadata id="metadata3459">image/svg+xml</metadata>

 <g>
  <title>background</title>
  <rect fill="none" id="canvas_background" height="402" width="582" y="-1" x="-1"/>
 </g>
 <g>
  <title>Layer 1</title>
  <g id="g3417">
   <path fill="#d86a2c" d="m30,0c-16.542,0 -30,13.458 -30,30c0,16.542 13.458,30 30,30c16.542,0 30,-13.458 30,-30c0,-16.542 -13.458,-30 -30,-30zm-11,14l8,0l0,32l-8,0l0,-32zm14,0l8,0l0,32l-8,0l0,-32z" id="path3419"/>
  </g>
  <g id="g3425"/>
  <g id="g3427"/>
  <g id="g3429"/>
  <g id="g3431"/>
  <g id="g3433"/>
  <g id="g3435"/>
  <g id="g3437"/>
  <g id="g3439"/>
  <g id="g3441"/>
  <g id="g3443"/>
  <g id="g3445"/>
  <g id="g3447"/>
  <g id="g3449"/>
  <g id="g3451"/>
  <g id="g3453"/>
 </g>
</svg>