<svg width="60" height="60" xmlns="http://www.w3.org/2000/svg">
 <metadata id="metadata4402">image/svg+xml</metadata>

 <g>
  <title>background</title>
  <rect fill="none" id="canvas_background" height="402" width="582" y="-1" x="-1"/>
 </g>
 <g>
  <title>Layer 1</title>
  <g id="g4362">
   <path fill="#d86a2c" d="m30,0c-16.542,0 -30,13.458 -30,30c0,16.542 13.458,30 30,30c16.542,0 30,-13.458 30,-30c0,-16.542 -13.458,-30 -30,-30zm-6.945311,14.00195c0.178371,0.01013 0.354311,0.06788 0.507811,0.17188l22,15c0.272999,0.186001 0.4375,0.495171 0.4375,0.82617c0,0.330999 -0.164501,0.640169 -0.4375,0.82617l-22,15.000002c-0.169001,0.114998 -0.365499,0.173828 -0.5625,0.173828c-0.16,0 -0.320801,-0.037239 -0.466801,-0.115231c-0.327999,-0.173 -0.533199,-0.513771 -0.533199,-0.884769l0,-30c0,-0.371 0.20425,-0.71177 0.53125,-0.88477c0.164,-0.086499 0.34506,-0.1234 0.523439,-0.113279z" id="path4366"/>
  </g>
  <g id="g4368"/>
  <g id="g4370"/>
  <g id="g4372"/>
  <g id="g4374"/>
  <g id="g4376"/>
  <g id="g4378"/>
  <g id="g4380"/>
  <g id="g4382"/>
  <g id="g4384"/>
  <g id="g4386"/>
  <g id="g4388"/>
  <g id="g4390"/>
  <g id="g4392"/>
  <g id="g4394"/>
  <g id="g4396"/>
 </g>
</svg>